movement-ii-adding-context – Spatiotemporal Datascience
…
Now we can join the movement data with the context information using various methods. A simple approach could be to use the attribute data from the nearest feature for each datapoint.

training_dataset_join <- st_join(training_dataset,highway, join = st_nearest_feature) |> 
  # Selecting these columns is for illustration purposes
  select(user_id, datetime, highway, cycleway)

training_dataset_join

Simple feature collection with 500 features and 4 fields
Geometry type: POINT
Dimension:     XY
Bounding box:  xmin: 452732.2 ymin: 4417605 xmax: 454778.1 ymax: 4419221
Projected CRS: WGS 84 / UTM zone 50N
# A tibble: 500 × 5
   user_id datetime            highway cycleway               geom
     <int> <dttm>              <chr>   <lgl>           <POINT [m]>
 1      10 2008-06-18 16:47:35 primary NA       (454778.1 4419210)
 2      10 2008-06-18 16:47:37 primary NA         (454775 4419210)
 3      10 2008-06-18 16:47:38 primary NA       (454772.7 4419209)
 4      10 2008-06-18 16:47:39 primary NA       (454769.7 4419208)
 5      10 2008-06-18 16:47:40 primary NA       (454765.2 4419207)
 6      10 2008-06-18 16:47:41 primary NA         (454760 4419205)
 7      10 2008-06-18 16:47:42 primary NA       (454754.7 4419204)
 8      10 2008-06-18 16:47:43 primary NA       (454749.4 4419203)
 9      10 2008-06-18 16:47:44 primary NA       (454743.9 4419204)
10      10 2008-06-18 16:47:45 primary NA       (454737.8 4419204)
# ℹ 490 more rows
…
