Spatiotemporal Datascience – Topological relations
…
playgrounds_join <- st_join(
  playgrounds, 
  publictransport, 
  join = st_nearest_feature
  )

playgrounds_join

Simple feature collection with 184 features and 2 fields
Geometry type: POINT
Dimension:     XY
Bounding box:  xmin: 2677632 ymin: 1242927 xmax: 2687639 ymax: 1253914
Projected CRS: CH1903+ / LV95
# A tibble: 184 × 3
   name                                                    geom CHSTNAME        
 * <chr>                                            <POINT [m]> <chr>           
 1 Buchenweg                                  (2685485 1245793) Zürich, Burgwies
 2 Buchlern Sportanlage                       (2678406 1248303) Zürich, Friedho…
 3 Mobile Spielanimation PAZMobile Spielanim… (2682898 1244212) Zürich, Rote Fa…
 4 Alfred-Altherr-Terrasse                    (2684082 1249963) Zürich, Langens…
 5 Auf der Egg                                (2682672 1243867) Zürich, Kalchbü…
 6 Belvoirpark                                (2682665 1245835) Zürich, Brunaus…
 7 Josefswiese                                (2681846 1248909) Zürich, Schiffb…
 8 Gertrudplatz                               (2681431 1247583) Zürich, Locherg…
 9 Wahlenpark                                 (2683172 1252246) Zürich, Max-Bil…
10 Rote Fabrik                                (2683004 1244150) Zürich, Rote Fa…
# ℹ 174 more rows
…
nrow(playgrounds)
## [1] 184

nrow(playgrounds_join2)
## [1] 186

playgrounds_join2

Simple feature collection with 186 features and 2 fields
Geometry type: POINT
Dimension:     XY
Bounding box:  xmin: 2677632 ymin: 1242927 xmax: 2687639 ymax: 1253914
Projected CRS: CH1903+ / LV95
# A tibble: 186 × 3
   name                                                    geom CHSTNAME        
 * <chr>                                            <POINT [m]> <chr>           
 1 Buchenweg                                  (2685485 1245793) <NA>            
 2 Buchlern Sportanlage                       (2678406 1248303) <NA>            
 3 Mobile Spielanimation PAZMobile Spielanim… (2682898 1244212) Zürich, Rote Fa…
 4 Alfred-Altherr-Terrasse                    (2684082 1249963) <NA>            
 5 Auf der Egg                                (2682672 1243867) Zürich, Kalchbü…
 6 Belvoirpark                                (2682665 1245835) <NA>            
 7 Josefswiese                                (2681846 1248909) <NA>            
 8 Gertrudplatz                               (2681431 1247583) <NA>            
 9 Wahlenpark                                 (2683172 1252246) <NA>            
10 Rote Fabrik                                (2683004 1244150) Zürich, Rote Fa…
# ℹ 176 more rows
…
